<?xml version="1.0" encoding="UTF-8" standalone="no"?>
<svg width="35px" height="35px" viewBox="0 0 35 35" version="1.1" xmlns="http://www.w3.org/2000/svg" xmlns:xlink="http://www.w3.org/1999/xlink">
    <!-- Generator: Sketch 3.8.1 (29687) - http://www.bohemiancoding.com/sketch -->
    <title>pin-ambulatory</title>
    <desc>Created with Sketch.</desc>
    <defs></defs>
    <g id="Page-1" stroke="none" stroke-width="1" fill="none" fill-rule="evenodd">
        <g id="pin-ambulatory">
            <circle id="Oval-23" stroke="#00B1CC" fill="#FFFFFF" cx="17.5" cy="17.5" r="17"></circle>
            <path d="M21.614625,20.073125 L20.4485,23.9617917 L17.5137917,23.5422083 L17.3958333,23.6728333 L17.3958333,25.5 L26.1041667,25.5 C26.3226667,25.5 26.5,25.3226667 26.5,25.1041667 L26.5,24.7083333 C26.5,22.308 24.30075,21.2075833 21.614625,20.073125 L21.614625,20.073125 Z" id="Shape" fill="#00B1CC"></path>
            <path d="M13.5515,23.9617917 L12.385375,20.073125 C9.69925,21.2075833 7.5,22.308 7.5,24.7083333 L7.5,25.1041667 C7.5,25.3226667 7.67733333,25.5 7.89583333,25.5 L16.6041667,25.5 L16.6041667,23.6728333 L16.4862083,23.5414167 L13.5515,23.9617917 L13.5515,23.9617917 Z" id="Shape" fill="#00B1CC"></path>
            <path d="M19.876125,19.3400417 C20.1033333,19.1144167 20.3162917,18.84525 20.5070833,18.5277917 C21.652625,19.2165417 23.7291667,19.0479167 25.0045417,18.762125 C25.3315,18.6877083 25.424125,18.2602083 25.1541667,18.059125 C23.861375,17.08775 25.238875,10.8795 21.0509583,9.04758333 L20.5585417,12.4945 C20.5300417,12.6884583 20.3637917,12.8333333 20.1666667,12.8333333 L19.0322083,12.8333333 C19.204,13.5363333 19.7779583,14.4602083 20.560125,15.0389167 C20.4833333,18.8935417 18.4432083,19.5055 17.216125,19.8728333 C17.140125,19.895 17.068875,19.9171667 17,19.9385417 C16.9319167,19.9171667 16.859875,19.895 16.783875,19.8728333 C15.5567917,19.5047083 13.515875,18.8935417 13.439875,15.0389167 C14.2220417,14.4602083 14.796,13.5363333 14.9677917,12.8333333 L13.8333333,12.8333333 C13.637,12.8333333 13.4699583,12.6884583 13.4414583,12.4937083 L12.9466667,9.02779167 C8.76033333,10.86525 10.1417917,17.085375 8.84583333,18.059125 C8.57825,18.258625 8.666125,18.6869167 8.99704167,18.762125 C10.23125,19.0407917 12.337875,19.2117917 13.492125,18.5254167 C13.6837083,18.8436667 13.8966667,19.113625 14.1246667,19.3400417 C14.0399583,19.3764583 13.9544583,19.4144583 13.86975,19.450875 L17,22.9294583 L20.1310417,19.450875 C20.0463333,19.4136667 19.9608333,19.3764583 19.876125,19.3400417 L19.876125,19.3400417 Z" id="Shape" fill="#00B1CC"></path>
            <path d="M14.1769167,12.0416667 L19.823875,12.0416667 L20.308375,8.64779167 C20.4112917,7.932125 19.8531667,7.29166667 19.13275,7.29166667 L14.86725,7.29166667 C14.1468333,7.29166667 13.5895,7.932125 13.691625,8.64779167 L14.1769167,12.0416667 L14.1769167,12.0416667 Z M15.8125,9.27083333 L16.6041667,9.27083333 L16.6041667,8.47916667 C16.6041667,8.26145833 16.7815,8.08333333 17,8.08333333 C17.2185,8.08333333 17.3958333,8.26145833 17.3958333,8.47916667 L17.3958333,9.27083333 L18.1875,9.27083333 C18.406,9.27083333 18.5833333,9.44895833 18.5833333,9.66666667 C18.5833333,9.88516667 18.406,10.0625 18.1875,10.0625 L17.3958333,10.0625 L17.3958333,10.8541667 C17.3958333,11.0726667 17.2185,11.25 17,11.25 C16.7815,11.25 16.6041667,11.0726667 16.6041667,10.8541667 L16.6041667,10.0625 L15.8125,10.0625 C15.594,10.0625 15.4166667,9.88516667 15.4166667,9.66666667 C15.4166667,9.44895833 15.594,9.27083333 15.8125,9.27083333 L15.8125,9.27083333 Z" id="Shape" fill="#00B1CC"></path>
            <path d="M14.43975,14.6454583 C14.299625,14.784 14.2291667,14.9732083 14.2291667,15.2099167 C14.2291667,15.427625 14.4065,15.60575 14.625,15.60575 C14.841125,15.60575 15.016875,15.4315833 15.0208333,15.2170417 C15.0960417,15.2075417 15.7380833,15.2075417 15.8125,15.2170417 C15.8156667,15.4315833 15.9922083,15.60575 16.2083333,15.60575 C16.4268333,15.60575 16.6041667,15.427625 16.6041667,15.2099167 C16.6041667,14.9732083 16.5337083,14.784 16.3935833,14.6454583 C16.15925,14.4119167 15.7325417,14.4150833 15.4166667,14.4166667 C15.1015833,14.4135 14.6740833,14.4119167 14.43975,14.6454583 L14.43975,14.6454583 Z" id="Shape" fill="#00B1CC"></path>
            <path d="M17.7916667,15.60575 C18.0077917,15.60575 18.1835417,15.4315833 18.1875,15.2170417 C18.2627083,15.2075417 18.90475,15.2075417 18.9791667,15.2170417 C18.9823333,15.4315833 19.158875,15.60575 19.375,15.60575 C19.5935,15.60575 19.7708333,15.427625 19.7708333,15.2099167 C19.7708333,14.9732083 19.700375,14.784 19.56025,14.6454583 C19.3259167,14.4119167 18.8992083,14.4150833 18.5833333,14.4166667 C18.26825,14.4135 17.84075,14.4119167 17.6064167,14.6454583 C17.4670833,14.784 17.3958333,14.9732083 17.3958333,15.2099167 C17.3958333,15.427625 17.5731667,15.60575 17.7916667,15.60575 L17.7916667,15.60575 Z" id="Shape" fill="#00B1CC"></path>
        </g>
    </g>
</svg>